DIAGNOSIS_DESC,WP,daycase
มะเร็งปากมดลูก,120,0
มะเร็งลำไส้ใหญ่และทวารหนัก,120,0
มะเร็งเต้านม,120,0
มะเร็งรังไข่,120,0
มะเร็งตับ,120,0
มะเร็งมดลูก,120,0
มะเร็งปอด,120,0
มะเร็งกระดูก,120,0
มะเร็งช่องปาก,120,0
มะเร็งผิวหนัง,120,0
มะเร็งโพรงหลังจมูก,120,0
มะเร็งต่อมลูกหมาก,120,0
มะเร็ง กล่องเสียง,120,0
มะเร็งเม็ดเลือดขาว,120,0
มะเร็งต่อมธัยรอยด์,120,0
มะเร็งต่อมน้ำเหลือง,120,0
มะเร็งถุงน้ำดี และท่อน้ำดี,120,0
มะเร็งในระบบประสาท,120,0
มะเร็งตับอ่อน,120,0
มะเร็งระบบทางเดินอาหาร ปัสสาวะ และอวัยวะสืบพันธุ์ชาย,120,0