policy_type,url
benefit_1_ipd,https://i.ibb.co/pbM1P66/017eb1-028.jpg
benefit_3_opd,https://i.ibb.co/JFBtqkd/017eb1-029.jpg
benefit_2_er,https://i.ibb.co/PzR8Kx4/017eb1-038.jpg
benefit_summary,https://i.ibb.co/vvJSg8h/017eb1-030.jpg
benefit_4_birth,https://i.ibb.co/PMMBL3Z/017eb1-080.jpg
benefit_5_others,https://i.ibb.co/PW0kQjt/017eb1-085.jpg
plan1_benefit_1_ipd_plus,https://i.ibb.co/wKr0fsH/017eb1-035.jpg
plan2_benefit_1_ipd_plus,https://i.ibb.co/wKr0fsH/017eb1-035.jpg
plan3_benefit_1_ipd_plus,https://i.ibb.co/wKr0fsH/017eb1-035.jpg
plan4_benefit_1_ipd_plus,https://i.ibb.co/wKr0fsH/017eb1-035.jpg
definition,https://i.ibb.co/7jHSmYy/017eb1-022.jpg
exception,https://i.ibb.co/k5ZPNBp/017eb1-103.jpg
general,https://i.ibb.co/pwycbPV/017eb1-021.jpg
Insurance_Policy,https://i.ibb.co/HCdFPc0/017eb1-024.jpg